{
	"status": true,
	"message": "Event deliveries fetched successfully",
	"data": {
		"content": [
			{
				"uid": "53599a61-5ff1-4ac5-96a6-02321d19b2a4",
				"event_metadata": { "uid": "52c5ea68-8a33-4fb8-99a2-726b59aebbbb", "name": "new.test" },
				"endpoint": {
					"uid": "8dfc9d70-9733-4876-a0db-5eaae73743ef",
					"target_url": "https://webhook.site/e098aaf6-c605-4cf5-befe-2700f2acfd86",
					"status": "active",
					"secret": "U-4aoEpvpSAnYQSGCql-LwiAZE2CRa38sQ==",
					"http_timeout": "",
					"rate_limit": 0,
					"rate_limit_duration": "",
					"sent": false
				},
				"app_metadata": { "uid": "291e98cb-4e93-408f-bb5b-d422ff13d12c", "title": "Testing som", "group_id": "5c9c6db0-7606-4f9f-9965-5455980881a2", "support_email": "emmanuel.ainaj@gmail.com" },
				"metadata": {
					"data": { "event_type": "new.text", "provider_id": "9a6026f2-534e-4ce6-a1e3-232452efbc32" },
					"strategy": "default",
					"next_send_time": "2022-03-22T14:06:21.472Z",
					"num_trials": 2,
					"interval_seconds": 20,
					"retry_limit": 3
				},
				"status": "Success",
				"created_at": "2022-03-22T14:06:21.472Z",
				"updated_at": "2022-03-25T16:42:54.622Z"
			},
			{
				"uid": "c9d62d19-01d3-4e9b-b71b-123c63187fa0",
				"event_metadata": { "uid": "b39488ab-b1c6-4ec6-8ad8-6691fbef34a1", "name": "payment.test" },
				"endpoint": {
					"uid": "4d0ab7e0-94ab-4788-9caf-dba9f4789881",
					"target_url": "https://webhook.site/f14ce842-286d-4362-9854-bfe953bfa463",
					"status": "active",
					"secret": "HQUpvfewhsUC6meLzOsbTrurPq2x672wuQ==",
					"http_timeout": "",
					"rate_limit": 0,
					"rate_limit_duration": "",
					"sent": false
				},
				"app_metadata": { "uid": "291e98cb-4e93-408f-bb5b-d422ff13d12c", "title": "Testing some", "group_id": "5c9c6db0-7606-4f9f-9965-5455980881a2", "support_email": "emmanuel.ainaj@gmail.com" },
				"metadata": {
					"data": { "event_type": "payment.text", "provider_id": "9a6026f2-534e-4ce6-a1e3-232452efbc32" },
					"strategy": "default",
					"next_send_time": "2022-03-24T13:22:04.296Z",
					"num_trials": 16,
					"interval_seconds": 20,
					"retry_limit": 3
				},
				"description": "Retry limit exceeded",
				"status": "Failure",
				"created_at": "2022-02-25T11:31:21.235Z",
				"updated_at": "2022-03-24T13:21:44.296Z"
			},
			{
				"uid": "fa24e0dd-2c5c-47c8-a15a-8e281ae61c9c",
				"event_metadata": { "uid": "0d6a1fd1-83e8-4f95-a67d-4d4581dc45f5", "name": "payment.test" },
				"endpoint": {
					"uid": "4d0ab7e0-94ab-4788-9caf-dba9f4789881",
					"target_url": "https://webhook.site/f14ce842-286d-4362-9854-bfe953bfa463",
					"status": "active",
					"secret": "HQUpvfewhsUC6meLzOsbTrurPq2x672wuQ==",
					"http_timeout": "",
					"rate_limit": 0,
					"rate_limit_duration": "",
					"sent": false
				},
				"app_metadata": { "uid": "291e98cb-4e93-408f-bb5b-d422ff13d12c", "title": "Testing some", "group_id": "5c9c6db0-7606-4f9f-9965-5455980881a2", "support_email": "emmanuel.ainaj@gmail.com" },
				"metadata": {
					"data": { "app_id": "9a6026f2-534e-4ce6-a1e3-232452efbc32", "event_type": "payment.new", "provider_id": "9a6026f2-534e-4ce6-a1e3-232452efbc32" },
					"strategy": "default",
					"next_send_time": "2022-03-16T18:24:59.962Z",
					"num_trials": 11,
					"interval_seconds": 20,
					"retry_limit": 3
				},
				"description": "Retry limit exceeded",
				"status": "Failure",
				"created_at": "2022-02-25T11:27:33.624Z",
				"updated_at": "2022-03-16T18:24:39.962Z"
			}
		],
		"pagination": { "total": 93, "page": 1, "perPage": 20, "prev": 0, "next": 2, "totalPage": 5 }
	}
}
