{
	"status": true,
	"message": "App events fetched successfully",
	"data": {
		"content": [
			{
				"uid": "52c5ea68-8a33-4fb8-99a2-726b59aebbbb",
				"event_type": "new.test",
				"matched_endpoints": 1,
				"provider_id": "291e98cb-4e93-408f-bb5b-d422ff13d12c",
				"data": { "event_type": "new.text", "provider_id": "9a6026f2-534e-4ce6-a1e3-232452efbc32" },
				"app_metadata": { "uid": "291e98cb-4e93-408f-bb5b-d422ff13d12c", "title": "Testing som", "group_id": "5c9c6db0-7606-4f9f-9965-5455980881a2", "support_email": "emmanuel.ainaj@gmail.com" },
				"created_at": "2022-03-22T14:06:21.333Z",
				"updated_at": "2022-03-22T14:06:21.333Z"
			},
			{
				"uid": "b39488ab-b1c6-4ec6-8ad8-6691fbef34a1",
				"event_type": "payment.test",
				"matched_endpoints": 1,
				"provider_id": "291e98cb-4e93-408f-bb5b-d422ff13d12c",
				"data": { "event_type": "payment.text", "provider_id": "9a6026f2-534e-4ce6-a1e3-232452efbc32" },
				"app_metadata": { "uid": "291e98cb-4e93-408f-bb5b-d422ff13d12c", "title": "Testing some", "group_id": "5c9c6db0-7606-4f9f-9965-5455980881a2", "support_email": "emmanuel.ainaj@gmail.com" },
				"created_at": "2022-02-25T11:31:21.229Z",
				"updated_at": "2022-02-25T11:31:21.229Z"
			},
			{
				"uid": "0d6a1fd1-83e8-4f95-a67d-4d4581dc45f5",
				"event_type": "payment.test",
				"matched_endpoints": 1,
				"provider_id": "291e98cb-4e93-408f-bb5b-d422ff13d12c",
				"data": { "app_id": "9a6026f2-534e-4ce6-a1e3-232452efbc32", "event_type": "payment.new", "provider_id": "9a6026f2-534e-4ce6-a1e3-232452efbc32" },
				"app_metadata": { "uid": "291e98cb-4e93-408f-bb5b-d422ff13d12c", "title": "Testing some", "group_id": "5c9c6db0-7606-4f9f-9965-5455980881a2", "support_email": "emmanuel.ainaj@gmail.com" },
				"created_at": "2022-02-25T11:27:33.622Z",
				"updated_at": "2022-02-25T11:27:33.622Z"
			},
			{
				"uid": "3e28b201-b807-47cf-9412-41a0713a0d60",
				"event_type": "payment.new",
				"matched_endpoints": 1,
				"provider_id": "291e98cb-4e93-408f-bb5b-d422ff13d12c",
				"data": { "app_id": "9a6026f2-534e-4ce6-a1e3-232452efbc32", "event_type": "payment.new", "provider_id": "9a6026f2-534e-4ce6-a1e3-232452efbc32" },
				"app_metadata": { "uid": "291e98cb-4e93-408f-bb5b-d422ff13d12c", "title": "Testing some", "group_id": "5c9c6db0-7606-4f9f-9965-5455980881a2", "support_email": "emmanuel.ainaj@gmail.com" },
				"created_at": "2022-02-25T11:26:59.631Z",
				"updated_at": "2022-02-25T11:26:59.631Z"
			},
			{
				"uid": "2463e3ef-0950-4f4a-8189-2f4c3a03219d",
				"event_type": "payment.new",
				"matched_endpoints": 1,
				"provider_id": "291e98cb-4e93-408f-bb5b-d422ff13d12c",
				"data": { "app_id": "9a6026f2-534e-4ce6-a1e3-232452efbc32", "event_type": "payment.new", "provider_id": "9a6026f2-534e-4ce6-a1e3-232452efbc32" },
				"app_metadata": { "uid": "291e98cb-4e93-408f-bb5b-d422ff13d12c", "title": "Testing some", "group_id": "5c9c6db0-7606-4f9f-9965-5455980881a2", "support_email": "emmanuel.ainaj@gmail.com" },
				"created_at": "2022-02-23T10:56:41.448Z",
				"updated_at": "2022-02-23T10:56:41.448Z"
			},
			{
				"uid": "4071a158-3e0e-42bf-ad14-2660ef82f851",
				"event_type": "payment.new",
				"matched_endpoints": 1,
				"provider_id": "291e98cb-4e93-408f-bb5b-d422ff13d12c",
				"data": { "app_id": "9a6026f2-534e-4ce6-a1e3-232452efbc32", "event_type": "payment.new", "provider_id": "9a6026f2-534e-4ce6-a1e3-232452efbc32" },
				"app_metadata": { "uid": "291e98cb-4e93-408f-bb5b-d422ff13d12c", "title": "Testing some", "group_id": "5c9c6db0-7606-4f9f-9965-5455980881a2", "support_email": "emmanuel.ainaj@gmail.com" },
				"created_at": "2022-02-01T09:26:18.259Z",
				"updated_at": "2022-02-01T09:26:18.259Z"
			},
			{
				"uid": "a1bdfd24-ba68-4c68-a65d-c45f8b874fab",
				"event_type": "payment.new",
				"matched_endpoints": 1,
				"provider_id": "291e98cb-4e93-408f-bb5b-d422ff13d12c",
				"data": { "app_id": "9a6026f2-534e-4ce6-a1e3-232452efbc32", "event_type": "payment.new", "provider_id": "9a6026f2-534e-4ce6-a1e3-232452efbc32" },
				"app_metadata": { "uid": "291e98cb-4e93-408f-bb5b-d422ff13d12c", "title": "Testing some", "group_id": "5c9c6db0-7606-4f9f-9965-5455980881a2", "support_email": "emmanuel.ainaj@gmail.com" },
				"created_at": "2022-02-01T09:26:17.962Z",
				"updated_at": "2022-02-01T09:26:17.962Z"
			},
			{
				"uid": "1fba44c8-3a0f-48d1-8e5a-8652e1c7c71d",
				"event_type": "payment.new",
				"matched_endpoints": 1,
				"provider_id": "291e98cb-4e93-408f-bb5b-d422ff13d12c",
				"data": { "app_id": "9a6026f2-534e-4ce6-a1e3-232452efbc32", "event_type": "payment.new", "provider_id": "9a6026f2-534e-4ce6-a1e3-232452efbc32" },
				"app_metadata": { "uid": "291e98cb-4e93-408f-bb5b-d422ff13d12c", "title": "Testing some", "group_id": "5c9c6db0-7606-4f9f-9965-5455980881a2", "support_email": "emmanuel.ainaj@gmail.com" },
				"created_at": "2022-02-01T09:26:17.638Z",
				"updated_at": "2022-02-01T09:26:17.638Z"
			},
			{
				"uid": "c34a0b54-b929-4a8c-aa6a-67a01eb2781e",
				"event_type": "payment.new",
				"matched_endpoints": 1,
				"provider_id": "291e98cb-4e93-408f-bb5b-d422ff13d12c",
				"data": { "app_id": "9a6026f2-534e-4ce6-a1e3-232452efbc32", "event_type": "payment.new", "provider_id": "9a6026f2-534e-4ce6-a1e3-232452efbc32" },
				"app_metadata": { "uid": "291e98cb-4e93-408f-bb5b-d422ff13d12c", "title": "Testing some", "group_id": "5c9c6db0-7606-4f9f-9965-5455980881a2", "support_email": "emmanuel.ainaj@gmail.com" },
				"created_at": "2022-02-01T09:26:17.244Z",
				"updated_at": "2022-02-01T09:26:17.244Z"
			},
			{
				"uid": "2688e622-0cf4-4294-b7dd-1f059a14dc7e",
				"event_type": "payment.new",
				"matched_endpoints": 1,
				"provider_id": "291e98cb-4e93-408f-bb5b-d422ff13d12c",
				"data": { "app_id": "9a6026f2-534e-4ce6-a1e3-232452efbc32", "event_type": "payment.new", "provider_id": "9a6026f2-534e-4ce6-a1e3-232452efbc32" },
				"app_metadata": { "uid": "291e98cb-4e93-408f-bb5b-d422ff13d12c", "title": "Testing some", "group_id": "5c9c6db0-7606-4f9f-9965-5455980881a2", "support_email": "emmanuel.ainaj@gmail.com" },
				"created_at": "2022-02-01T09:26:16.941Z",
				"updated_at": "2022-02-01T09:26:16.941Z"
			},
			{
				"uid": "d7f96a0f-3fe0-489d-8caa-55b2beb5425d",
				"event_type": "payment.new",
				"matched_endpoints": 1,
				"provider_id": "291e98cb-4e93-408f-bb5b-d422ff13d12c",
				"data": { "app_id": "9a6026f2-534e-4ce6-a1e3-232452efbc32", "event_type": "payment.new", "provider_id": "9a6026f2-534e-4ce6-a1e3-232452efbc32" },
				"app_metadata": { "uid": "291e98cb-4e93-408f-bb5b-d422ff13d12c", "title": "Testing some", "group_id": "5c9c6db0-7606-4f9f-9965-5455980881a2", "support_email": "emmanuel.ainaj@gmail.com" },
				"created_at": "2022-02-01T09:26:16.608Z",
				"updated_at": "2022-02-01T09:26:16.608Z"
			},
			{
				"uid": "6ef177e7-568e-4736-b146-1c5b726bf4de",
				"event_type": "payment.new",
				"matched_endpoints": 1,
				"provider_id": "291e98cb-4e93-408f-bb5b-d422ff13d12c",
				"data": { "app_id": "9a6026f2-534e-4ce6-a1e3-232452efbc32", "event_type": "payment.new", "provider_id": "9a6026f2-534e-4ce6-a1e3-232452efbc32" },
				"app_metadata": { "uid": "291e98cb-4e93-408f-bb5b-d422ff13d12c", "title": "Testing some", "group_id": "5c9c6db0-7606-4f9f-9965-5455980881a2", "support_email": "emmanuel.ainaj@gmail.com" },
				"created_at": "2022-02-01T09:26:16.25Z",
				"updated_at": "2022-02-01T09:26:16.25Z"
			},
			{
				"uid": "5609852e-a2da-452b-98dc-ef613e57790e",
				"event_type": "payment.new",
				"matched_endpoints": 1,
				"provider_id": "291e98cb-4e93-408f-bb5b-d422ff13d12c",
				"data": { "app_id": "9a6026f2-534e-4ce6-a1e3-232452efbc32", "event_type": "payment.new", "provider_id": "9a6026f2-534e-4ce6-a1e3-232452efbc32" },
				"app_metadata": { "uid": "291e98cb-4e93-408f-bb5b-d422ff13d12c", "title": "Testing some", "group_id": "5c9c6db0-7606-4f9f-9965-5455980881a2", "support_email": "emmanuel.ainaj@gmail.com" },
				"created_at": "2022-02-01T09:26:15.881Z",
				"updated_at": "2022-02-01T09:26:15.881Z"
			},
			{
				"uid": "c0db7562-e701-4fed-8200-2887e8c88e72",
				"event_type": "payment.new",
				"matched_endpoints": 1,
				"provider_id": "291e98cb-4e93-408f-bb5b-d422ff13d12c",
				"data": { "app_id": "9a6026f2-534e-4ce6-a1e3-232452efbc32", "event_type": "payment.new", "provider_id": "9a6026f2-534e-4ce6-a1e3-232452efbc32" },
				"app_metadata": { "uid": "291e98cb-4e93-408f-bb5b-d422ff13d12c", "title": "Testing some", "group_id": "5c9c6db0-7606-4f9f-9965-5455980881a2", "support_email": "emmanuel.ainaj@gmail.com" },
				"created_at": "2022-02-01T09:26:15.531Z",
				"updated_at": "2022-02-01T09:26:15.531Z"
			},
			{
				"uid": "ceaf17cc-e25d-4ed5-8c79-9c367c81f183",
				"event_type": "payment.new",
				"matched_endpoints": 1,
				"provider_id": "291e98cb-4e93-408f-bb5b-d422ff13d12c",
				"data": { "app_id": "9a6026f2-534e-4ce6-a1e3-232452efbc32", "event_type": "payment.new", "provider_id": "9a6026f2-534e-4ce6-a1e3-232452efbc32" },
				"app_metadata": { "uid": "291e98cb-4e93-408f-bb5b-d422ff13d12c", "title": "Testing some", "group_id": "5c9c6db0-7606-4f9f-9965-5455980881a2", "support_email": "emmanuel.ainaj@gmail.com" },
				"created_at": "2022-02-01T09:26:15.186Z",
				"updated_at": "2022-02-01T09:26:15.186Z"
			},
			{
				"uid": "6496c4dc-2372-4a75-947a-77da9c5ea87d",
				"event_type": "payment.new",
				"matched_endpoints": 1,
				"provider_id": "291e98cb-4e93-408f-bb5b-d422ff13d12c",
				"data": { "app_id": "9a6026f2-534e-4ce6-a1e3-232452efbc32", "event_type": "payment.new", "provider_id": "9a6026f2-534e-4ce6-a1e3-232452efbc32" },
				"app_metadata": { "uid": "291e98cb-4e93-408f-bb5b-d422ff13d12c", "title": "Testing some", "group_id": "5c9c6db0-7606-4f9f-9965-5455980881a2", "support_email": "emmanuel.ainaj@gmail.com" },
				"created_at": "2022-02-01T09:26:14.863Z",
				"updated_at": "2022-02-01T09:26:14.863Z"
			},
			{
				"uid": "6b818593-607b-4e99-b17c-03791555deef",
				"event_type": "payment.new",
				"matched_endpoints": 1,
				"provider_id": "291e98cb-4e93-408f-bb5b-d422ff13d12c",
				"data": { "app_id": "9a6026f2-534e-4ce6-a1e3-232452efbc32", "event_type": "payment.new", "provider_id": "9a6026f2-534e-4ce6-a1e3-232452efbc32" },
				"app_metadata": { "uid": "291e98cb-4e93-408f-bb5b-d422ff13d12c", "title": "Testing some", "group_id": "5c9c6db0-7606-4f9f-9965-5455980881a2", "support_email": "emmanuel.ainaj@gmail.com" },
				"created_at": "2022-02-01T09:26:14.492Z",
				"updated_at": "2022-02-01T09:26:14.492Z"
			},
			{
				"uid": "94afa4e4-4e4e-4d3a-a7fe-acefcafe5593",
				"event_type": "payment.new",
				"matched_endpoints": 1,
				"provider_id": "291e98cb-4e93-408f-bb5b-d422ff13d12c",
				"data": { "app_id": "9a6026f2-534e-4ce6-a1e3-232452efbc32", "event_type": "payment.new", "provider_id": "9a6026f2-534e-4ce6-a1e3-232452efbc32" },
				"app_metadata": { "uid": "291e98cb-4e93-408f-bb5b-d422ff13d12c", "title": "Testing some", "group_id": "5c9c6db0-7606-4f9f-9965-5455980881a2", "support_email": "emmanuel.ainaj@gmail.com" },
				"created_at": "2022-02-01T09:26:14.156Z",
				"updated_at": "2022-02-01T09:26:14.156Z"
			},
			{
				"uid": "836e8a4d-2693-45e5-8a17-3e70bf5147f9",
				"event_type": "payment.new",
				"matched_endpoints": 1,
				"provider_id": "291e98cb-4e93-408f-bb5b-d422ff13d12c",
				"data": { "app_id": "9a6026f2-534e-4ce6-a1e3-232452efbc32", "event_type": "payment.new", "provider_id": "9a6026f2-534e-4ce6-a1e3-232452efbc32" },
				"app_metadata": { "uid": "291e98cb-4e93-408f-bb5b-d422ff13d12c", "title": "Testing some", "group_id": "5c9c6db0-7606-4f9f-9965-5455980881a2", "support_email": "emmanuel.ainaj@gmail.com" },
				"created_at": "2022-02-01T09:26:13.799Z",
				"updated_at": "2022-02-01T09:26:13.799Z"
			},
			{
				"uid": "a1b04630-0b27-4e1f-94c0-32a7643619b5",
				"event_type": "payment.new",
				"matched_endpoints": 1,
				"provider_id": "291e98cb-4e93-408f-bb5b-d422ff13d12c",
				"data": { "app_id": "9a6026f2-534e-4ce6-a1e3-232452efbc32", "event_type": "payment.new", "provider_id": "9a6026f2-534e-4ce6-a1e3-232452efbc32" },
				"app_metadata": { "uid": "291e98cb-4e93-408f-bb5b-d422ff13d12c", "title": "Testing some", "group_id": "5c9c6db0-7606-4f9f-9965-5455980881a2", "support_email": "emmanuel.ainaj@gmail.com" },
				"created_at": "2022-02-01T09:26:13.479Z",
				"updated_at": "2022-02-01T09:26:13.479Z"
			}
		],
		"pagination": { "total": 93, "page": 1, "perPage": 20, "prev": 0, "next": 2, "totalPage": 5 }
	}
}
