{
	"status": true,
	"message": "Event deliveries fetched successfully",
	"data": {
		"content": [
			{
				"uid": "53599a61-5ff1-4ac5-96a6-02321d19b2a4",
				"event_metadata": { "uid": "52c5ea68-8a33-4fb8-99a2-726b59aebbbb", "name": "new.test" },
				"endpoint": {
					"uid": "8dfc9d70-9733-4876-a0db-5eaae73743ef",
					"target_url": "https://webhook.site/e098aaf6-c605-4cf5-befe-2700f2acfd86",
					"status": "active",
					"secret": "U-4aoEpvpSAnYQSGCql-LwiAZE2CRa38sQ==",
					"http_timeout": "",
					"rate_limit": 0,
					"rate_limit_duration": "",
					"sent": false
				},
				"app_metadata": { "uid": "291e98cb-4e93-408f-bb5b-d422ff13d12c", "title": "Testing som", "group_id": "5c9c6db0-7606-4f9f-9965-5455980881a2", "support_email": "emmanuel.ainaj@gmail.com" },
				"metadata": {
					"data": { "event_type": "new.text", "provider_id": "9a6026f2-534e-4ce6-a1e3-232452efbc32" },
					"strategy": "default",
					"next_send_time": "2022-03-22T14:06:21.472Z",
					"num_trials": 2,
					"interval_seconds": 20,
					"retry_limit": 3
				},
				"status": "Success",
				"created_at": "2022-03-22T14:06:21.472Z",
				"updated_at": "2022-03-25T16:42:54.622Z"
			},
			{
				"uid": "c9d62d19-01d3-4e9b-b71b-123c63187fa0",
				"event_metadata": { "uid": "b39488ab-b1c6-4ec6-8ad8-6691fbef34a1", "name": "payment.test" },
				"endpoint": {
					"uid": "4d0ab7e0-94ab-4788-9caf-dba9f4789881",
					"target_url": "https://webhook.site/f14ce842-286d-4362-9854-bfe953bfa463",
					"status": "active",
					"secret": "HQUpvfewhsUC6meLzOsbTrurPq2x672wuQ==",
					"http_timeout": "",
					"rate_limit": 0,
					"rate_limit_duration": "",
					"sent": false
				},
				"app_metadata": { "uid": "291e98cb-4e93-408f-bb5b-d422ff13d12c", "title": "Testing some", "group_id": "5c9c6db0-7606-4f9f-9965-5455980881a2", "support_email": "emmanuel.ainaj@gmail.com" },
				"metadata": {
					"data": { "event_type": "payment.text", "provider_id": "9a6026f2-534e-4ce6-a1e3-232452efbc32" },
					"strategy": "default",
					"next_send_time": "2022-03-24T13:22:04.296Z",
					"num_trials": 16,
					"interval_seconds": 20,
					"retry_limit": 3
				},
				"description": "Retry limit exceeded",
				"status": "Failure",
				"created_at": "2022-02-25T11:31:21.235Z",
				"updated_at": "2022-03-24T13:21:44.296Z"
			},
			{
				"uid": "fa24e0dd-2c5c-47c8-a15a-8e281ae61c9c",
				"event_metadata": { "uid": "0d6a1fd1-83e8-4f95-a67d-4d4581dc45f5", "name": "payment.test" },
				"endpoint": {
					"uid": "4d0ab7e0-94ab-4788-9caf-dba9f4789881",
					"target_url": "https://webhook.site/f14ce842-286d-4362-9854-bfe953bfa463",
					"status": "active",
					"secret": "HQUpvfewhsUC6meLzOsbTrurPq2x672wuQ==",
					"http_timeout": "",
					"rate_limit": 0,
					"rate_limit_duration": "",
					"sent": false
				},
				"app_metadata": { "uid": "291e98cb-4e93-408f-bb5b-d422ff13d12c", "title": "Testing some", "group_id": "5c9c6db0-7606-4f9f-9965-5455980881a2", "support_email": "emmanuel.ainaj@gmail.com" },
				"metadata": {
					"data": { "app_id": "9a6026f2-534e-4ce6-a1e3-232452efbc32", "event_type": "payment.new", "provider_id": "9a6026f2-534e-4ce6-a1e3-232452efbc32" },
					"strategy": "default",
					"next_send_time": "2022-03-16T18:24:59.962Z",
					"num_trials": 11,
					"interval_seconds": 20,
					"retry_limit": 3
				},
				"description": "Retry limit exceeded",
				"status": "Failure",
				"created_at": "2022-02-25T11:27:33.624Z",
				"updated_at": "2022-03-16T18:24:39.962Z"
			},
			{
				"uid": "f1095c30-5cf1-4676-925f-a84b5d9f2a49",
				"event_metadata": { "uid": "3e28b201-b807-47cf-9412-41a0713a0d60", "name": "payment.new" },
				"endpoint": {
					"uid": "4d0ab7e0-94ab-4788-9caf-dba9f4789881",
					"target_url": "https://webhook.site/f14ce842-286d-4362-9854-bfe953bfa463",
					"status": "active",
					"secret": "HQUpvfewhsUC6meLzOsbTrurPq2x672wuQ==",
					"http_timeout": "",
					"rate_limit": 0,
					"rate_limit_duration": "",
					"sent": false
				},
				"app_metadata": { "uid": "291e98cb-4e93-408f-bb5b-d422ff13d12c", "title": "Testing some", "group_id": "5c9c6db0-7606-4f9f-9965-5455980881a2", "support_email": "emmanuel.ainaj@gmail.com" },
				"metadata": {
					"data": { "app_id": "9a6026f2-534e-4ce6-a1e3-232452efbc32", "event_type": "payment.new", "provider_id": "9a6026f2-534e-4ce6-a1e3-232452efbc32" },
					"strategy": "default",
					"next_send_time": "2022-03-16T18:25:07.836Z",
					"num_trials": 11,
					"interval_seconds": 20,
					"retry_limit": 3
				},
				"description": "Retry limit exceeded",
				"status": "Failure",
				"created_at": "2022-02-25T11:26:59.646Z",
				"updated_at": "2022-03-16T18:24:47.836Z"
			},
			{
				"uid": "0886ecfc-7656-42d8-b5c8-27987e5df28b",
				"event_metadata": { "uid": "2463e3ef-0950-4f4a-8189-2f4c3a03219d", "name": "payment.new" },
				"endpoint": {
					"uid": "4d0ab7e0-94ab-4788-9caf-dba9f4789881",
					"target_url": "https://webhook.site/f14ce842-286d-4362-9854-bfe953bfa463",
					"status": "active",
					"secret": "HQUpvfewhsUC6meLzOsbTrurPq2x672wuQ==",
					"http_timeout": "",
					"rate_limit": 0,
					"rate_limit_duration": "",
					"sent": false
				},
				"app_metadata": { "uid": "291e98cb-4e93-408f-bb5b-d422ff13d12c", "title": "Testing some", "group_id": "5c9c6db0-7606-4f9f-9965-5455980881a2", "support_email": "emmanuel.ainaj@gmail.com" },
				"metadata": {
					"data": { "app_id": "9a6026f2-534e-4ce6-a1e3-232452efbc32", "event_type": "payment.new", "provider_id": "9a6026f2-534e-4ce6-a1e3-232452efbc32" },
					"strategy": "default",
					"next_send_time": "2022-03-16T18:25:07.853Z",
					"num_trials": 13,
					"interval_seconds": 20,
					"retry_limit": 3
				},
				"description": "Retry limit exceeded",
				"status": "Failure",
				"created_at": "2022-02-23T10:56:41.492Z",
				"updated_at": "2022-03-16T18:24:47.853Z"
			},
			{
				"uid": "4ebc4263-4585-4047-97b0-18267b02f1c2",
				"event_metadata": { "uid": "4071a158-3e0e-42bf-ad14-2660ef82f851", "name": "payment.new" },
				"endpoint": {
					"uid": "4d0ab7e0-94ab-4788-9caf-dba9f4789881",
					"target_url": "https://webhook.site/f14ce842-286d-4362-9854-bfe953bfa463",
					"status": "active",
					"secret": "HQUpvfewhsUC6meLzOsbTrurPq2x672wuQ==",
					"http_timeout": "",
					"rate_limit": 0,
					"rate_limit_duration": "",
					"sent": false
				},
				"app_metadata": { "uid": "291e98cb-4e93-408f-bb5b-d422ff13d12c", "title": "Testing some", "group_id": "5c9c6db0-7606-4f9f-9965-5455980881a2", "support_email": "emmanuel.ainaj@gmail.com" },
				"metadata": {
					"data": { "app_id": "9a6026f2-534e-4ce6-a1e3-232452efbc32", "event_type": "payment.new", "provider_id": "9a6026f2-534e-4ce6-a1e3-232452efbc32" },
					"strategy": "default",
					"next_send_time": "2022-03-16T18:25:07.853Z",
					"num_trials": 9,
					"interval_seconds": 20,
					"retry_limit": 3
				},
				"description": "Retry limit exceeded",
				"status": "Failure",
				"created_at": "2022-02-01T09:26:18.26Z",
				"updated_at": "2022-03-16T18:24:47.853Z"
			},
			{
				"uid": "b253f730-5883-4a99-8bad-33011bd3ece2",
				"event_metadata": { "uid": "a1bdfd24-ba68-4c68-a65d-c45f8b874fab", "name": "payment.new" },
				"endpoint": {
					"uid": "4d0ab7e0-94ab-4788-9caf-dba9f4789881",
					"target_url": "https://webhook.site/f14ce842-286d-4362-9854-bfe953bfa463",
					"status": "active",
					"secret": "HQUpvfewhsUC6meLzOsbTrurPq2x672wuQ==",
					"http_timeout": "",
					"rate_limit": 0,
					"rate_limit_duration": "",
					"sent": false
				},
				"app_metadata": { "uid": "291e98cb-4e93-408f-bb5b-d422ff13d12c", "title": "Testing some", "group_id": "5c9c6db0-7606-4f9f-9965-5455980881a2", "support_email": "emmanuel.ainaj@gmail.com" },
				"metadata": {
					"data": { "app_id": "9a6026f2-534e-4ce6-a1e3-232452efbc32", "event_type": "payment.new", "provider_id": "9a6026f2-534e-4ce6-a1e3-232452efbc32" },
					"strategy": "default",
					"next_send_time": "2022-03-16T18:25:07.852Z",
					"num_trials": 9,
					"interval_seconds": 20,
					"retry_limit": 3
				},
				"description": "Retry limit exceeded",
				"status": "Failure",
				"created_at": "2022-02-01T09:26:17.962Z",
				"updated_at": "2022-03-16T18:24:47.852Z"
			},
			{
				"uid": "03e68e33-3553-42d3-863f-b36a6e5756c8",
				"event_metadata": { "uid": "1fba44c8-3a0f-48d1-8e5a-8652e1c7c71d", "name": "payment.new" },
				"endpoint": {
					"uid": "4d0ab7e0-94ab-4788-9caf-dba9f4789881",
					"target_url": "https://webhook.site/f14ce842-286d-4362-9854-bfe953bfa463",
					"status": "active",
					"secret": "HQUpvfewhsUC6meLzOsbTrurPq2x672wuQ==",
					"http_timeout": "",
					"rate_limit": 0,
					"rate_limit_duration": "",
					"sent": false
				},
				"app_metadata": { "uid": "291e98cb-4e93-408f-bb5b-d422ff13d12c", "title": "Testing some", "group_id": "5c9c6db0-7606-4f9f-9965-5455980881a2", "support_email": "emmanuel.ainaj@gmail.com" },
				"metadata": {
					"data": { "app_id": "9a6026f2-534e-4ce6-a1e3-232452efbc32", "event_type": "payment.new", "provider_id": "9a6026f2-534e-4ce6-a1e3-232452efbc32" },
					"strategy": "default",
					"next_send_time": "2022-03-16T18:25:15.882Z",
					"num_trials": 8,
					"interval_seconds": 20,
					"retry_limit": 3
				},
				"description": "Retry limit exceeded",
				"status": "Failure",
				"created_at": "2022-02-01T09:26:17.64Z",
				"updated_at": "2022-03-16T18:24:55.882Z"
			},
			{
				"uid": "a2d6de28-45c4-4af0-b1cb-57b3ff83f765",
				"event_metadata": { "uid": "c34a0b54-b929-4a8c-aa6a-67a01eb2781e", "name": "payment.new" },
				"endpoint": {
					"uid": "4d0ab7e0-94ab-4788-9caf-dba9f4789881",
					"target_url": "https://webhook.site/f14ce842-286d-4362-9854-bfe953bfa463",
					"status": "active",
					"secret": "HQUpvfewhsUC6meLzOsbTrurPq2x672wuQ==",
					"http_timeout": "",
					"rate_limit": 0,
					"rate_limit_duration": "",
					"sent": false
				},
				"app_metadata": { "uid": "291e98cb-4e93-408f-bb5b-d422ff13d12c", "title": "Testing some", "group_id": "5c9c6db0-7606-4f9f-9965-5455980881a2", "support_email": "emmanuel.ainaj@gmail.com" },
				"metadata": {
					"data": { "app_id": "9a6026f2-534e-4ce6-a1e3-232452efbc32", "event_type": "payment.new", "provider_id": "9a6026f2-534e-4ce6-a1e3-232452efbc32" },
					"strategy": "default",
					"next_send_time": "2022-03-16T18:25:15.878Z",
					"num_trials": 9,
					"interval_seconds": 20,
					"retry_limit": 3
				},
				"description": "Retry limit exceeded",
				"status": "Failure",
				"created_at": "2022-02-01T09:26:17.244Z",
				"updated_at": "2022-03-16T18:24:55.878Z"
			},
			{
				"uid": "2964ec2e-b38d-4efa-bffc-4afd59b0350e",
				"event_metadata": { "uid": "2688e622-0cf4-4294-b7dd-1f059a14dc7e", "name": "payment.new" },
				"endpoint": {
					"uid": "4d0ab7e0-94ab-4788-9caf-dba9f4789881",
					"target_url": "https://webhook.site/f14ce842-286d-4362-9854-bfe953bfa463",
					"status": "active",
					"secret": "HQUpvfewhsUC6meLzOsbTrurPq2x672wuQ==",
					"http_timeout": "",
					"rate_limit": 0,
					"rate_limit_duration": "",
					"sent": false
				},
				"app_metadata": { "uid": "291e98cb-4e93-408f-bb5b-d422ff13d12c", "title": "Testing some", "group_id": "5c9c6db0-7606-4f9f-9965-5455980881a2", "support_email": "emmanuel.ainaj@gmail.com" },
				"metadata": {
					"data": { "app_id": "9a6026f2-534e-4ce6-a1e3-232452efbc32", "event_type": "payment.new", "provider_id": "9a6026f2-534e-4ce6-a1e3-232452efbc32" },
					"strategy": "default",
					"next_send_time": "2022-03-16T18:21:49.884Z",
					"num_trials": 7,
					"interval_seconds": 20,
					"retry_limit": 3
				},
				"description": "Retry limit exceeded",
				"status": "Scheduled",
				"created_at": "2022-02-01T09:26:16.942Z",
				"updated_at": "2022-03-16T18:24:47.455Z"
			},
			{
				"uid": "a056ab8b-bac5-4914-8e4e-b1dc0be6ae80",
				"event_metadata": { "uid": "d7f96a0f-3fe0-489d-8caa-55b2beb5425d", "name": "payment.new" },
				"endpoint": {
					"uid": "4d0ab7e0-94ab-4788-9caf-dba9f4789881",
					"target_url": "https://webhook.site/f14ce842-286d-4362-9854-bfe953bfa463",
					"status": "active",
					"secret": "HQUpvfewhsUC6meLzOsbTrurPq2x672wuQ==",
					"http_timeout": "",
					"rate_limit": 0,
					"rate_limit_duration": "",
					"sent": false
				},
				"app_metadata": { "uid": "291e98cb-4e93-408f-bb5b-d422ff13d12c", "title": "Testing some", "group_id": "5c9c6db0-7606-4f9f-9965-5455980881a2", "support_email": "emmanuel.ainaj@gmail.com" },
				"metadata": {
					"data": { "app_id": "9a6026f2-534e-4ce6-a1e3-232452efbc32", "event_type": "payment.new", "provider_id": "9a6026f2-534e-4ce6-a1e3-232452efbc32" },
					"strategy": "default",
					"next_send_time": "2022-03-16T18:21:49.884Z",
					"num_trials": 7,
					"interval_seconds": 20,
					"retry_limit": 3
				},
				"description": "Retry limit exceeded",
				"status": "Failure",
				"created_at": "2022-02-01T09:26:16.609Z",
				"updated_at": "2022-03-16T18:21:29.884Z"
			},
			{
				"uid": "334d009d-bf81-4ed9-85be-c39618720b40",
				"event_metadata": { "uid": "6ef177e7-568e-4736-b146-1c5b726bf4de", "name": "payment.new" },
				"endpoint": {
					"uid": "4d0ab7e0-94ab-4788-9caf-dba9f4789881",
					"target_url": "https://webhook.site/f14ce842-286d-4362-9854-bfe953bfa463",
					"status": "active",
					"secret": "HQUpvfewhsUC6meLzOsbTrurPq2x672wuQ==",
					"http_timeout": "",
					"rate_limit": 0,
					"rate_limit_duration": "",
					"sent": false
				},
				"app_metadata": { "uid": "291e98cb-4e93-408f-bb5b-d422ff13d12c", "title": "Testing some", "group_id": "5c9c6db0-7606-4f9f-9965-5455980881a2", "support_email": "emmanuel.ainaj@gmail.com" },
				"metadata": {
					"data": { "app_id": "9a6026f2-534e-4ce6-a1e3-232452efbc32", "event_type": "payment.new", "provider_id": "9a6026f2-534e-4ce6-a1e3-232452efbc32" },
					"strategy": "default",
					"next_send_time": "2022-03-16T18:21:55.918Z",
					"num_trials": 7,
					"interval_seconds": 20,
					"retry_limit": 3
				},
				"description": "Retry limit exceeded",
				"status": "Failure",
				"created_at": "2022-02-01T09:26:16.25Z",
				"updated_at": "2022-03-16T18:21:35.918Z"
			},
			{
				"uid": "3f2710ed-f694-480e-865f-628db34f4d59",
				"event_metadata": { "uid": "5609852e-a2da-452b-98dc-ef613e57790e", "name": "payment.new" },
				"endpoint": {
					"uid": "4d0ab7e0-94ab-4788-9caf-dba9f4789881",
					"target_url": "https://webhook.site/f14ce842-286d-4362-9854-bfe953bfa463",
					"status": "active",
					"secret": "HQUpvfewhsUC6meLzOsbTrurPq2x672wuQ==",
					"http_timeout": "",
					"rate_limit": 0,
					"rate_limit_duration": "",
					"sent": false
				},
				"app_metadata": { "uid": "291e98cb-4e93-408f-bb5b-d422ff13d12c", "title": "Testing some", "group_id": "5c9c6db0-7606-4f9f-9965-5455980881a2", "support_email": "emmanuel.ainaj@gmail.com" },
				"metadata": {
					"data": { "app_id": "9a6026f2-534e-4ce6-a1e3-232452efbc32", "event_type": "payment.new", "provider_id": "9a6026f2-534e-4ce6-a1e3-232452efbc32" },
					"strategy": "default",
					"next_send_time": "2022-03-16T18:21:55.903Z",
					"num_trials": 9,
					"interval_seconds": 20,
					"retry_limit": 3
				},
				"description": "Retry limit exceeded",
				"status": "Failure",
				"created_at": "2022-02-01T09:26:15.881Z",
				"updated_at": "2022-03-16T18:21:35.904Z"
			},
			{
				"uid": "104dd702-9be1-4335-97f2-b52c446b873c",
				"event_metadata": { "uid": "c0db7562-e701-4fed-8200-2887e8c88e72", "name": "payment.new" },
				"endpoint": {
					"uid": "4d0ab7e0-94ab-4788-9caf-dba9f4789881",
					"target_url": "https://webhook.site/f14ce842-286d-4362-9854-bfe953bfa463",
					"status": "active",
					"secret": "HQUpvfewhsUC6meLzOsbTrurPq2x672wuQ==",
					"http_timeout": "",
					"rate_limit": 0,
					"rate_limit_duration": "",
					"sent": false
				},
				"app_metadata": { "uid": "291e98cb-4e93-408f-bb5b-d422ff13d12c", "title": "Testing some", "group_id": "5c9c6db0-7606-4f9f-9965-5455980881a2", "support_email": "emmanuel.ainaj@gmail.com" },
				"metadata": {
					"data": { "app_id": "9a6026f2-534e-4ce6-a1e3-232452efbc32", "event_type": "payment.new", "provider_id": "9a6026f2-534e-4ce6-a1e3-232452efbc32" },
					"strategy": "default",
					"next_send_time": "2022-03-16T18:21:55.914Z",
					"num_trials": 8,
					"interval_seconds": 20,
					"retry_limit": 3
				},
				"description": "Retry limit exceeded",
				"status": "Failure",
				"created_at": "2022-02-01T09:26:15.532Z",
				"updated_at": "2022-03-16T18:21:35.914Z"
			},
			{
				"uid": "6dadabd7-ae8e-4c4e-bdfc-edf70c214eb0",
				"event_metadata": { "uid": "ceaf17cc-e25d-4ed5-8c79-9c367c81f183", "name": "payment.new" },
				"endpoint": {
					"uid": "4d0ab7e0-94ab-4788-9caf-dba9f4789881",
					"target_url": "https://webhook.site/f14ce842-286d-4362-9854-bfe953bfa463",
					"status": "active",
					"secret": "HQUpvfewhsUC6meLzOsbTrurPq2x672wuQ==",
					"http_timeout": "",
					"rate_limit": 0,
					"rate_limit_duration": "",
					"sent": false
				},
				"app_metadata": { "uid": "291e98cb-4e93-408f-bb5b-d422ff13d12c", "title": "Testing some", "group_id": "5c9c6db0-7606-4f9f-9965-5455980881a2", "support_email": "emmanuel.ainaj@gmail.com" },
				"metadata": {
					"data": { "app_id": "9a6026f2-534e-4ce6-a1e3-232452efbc32", "event_type": "payment.new", "provider_id": "9a6026f2-534e-4ce6-a1e3-232452efbc32" },
					"strategy": "default",
					"next_send_time": "2022-03-16T18:21:55.918Z",
					"num_trials": 7,
					"interval_seconds": 20,
					"retry_limit": 3
				},
				"description": "Retry limit exceeded",
				"status": "Failure",
				"created_at": "2022-02-01T09:26:15.186Z",
				"updated_at": "2022-03-16T18:21:35.918Z"
			},
			{
				"uid": "b742c7e9-da22-4be1-9ec0-56fc074a143b",
				"event_metadata": { "uid": "6496c4dc-2372-4a75-947a-77da9c5ea87d", "name": "payment.new" },
				"endpoint": {
					"uid": "4d0ab7e0-94ab-4788-9caf-dba9f4789881",
					"target_url": "https://webhook.site/f14ce842-286d-4362-9854-bfe953bfa463",
					"status": "active",
					"secret": "HQUpvfewhsUC6meLzOsbTrurPq2x672wuQ==",
					"http_timeout": "",
					"rate_limit": 0,
					"rate_limit_duration": "",
					"sent": false
				},
				"app_metadata": { "uid": "291e98cb-4e93-408f-bb5b-d422ff13d12c", "title": "Testing some", "group_id": "5c9c6db0-7606-4f9f-9965-5455980881a2", "support_email": "emmanuel.ainaj@gmail.com" },
				"metadata": {
					"data": { "app_id": "9a6026f2-534e-4ce6-a1e3-232452efbc32", "event_type": "payment.new", "provider_id": "9a6026f2-534e-4ce6-a1e3-232452efbc32" },
					"strategy": "default",
					"next_send_time": "2022-03-16T18:22:02.92Z",
					"num_trials": 7,
					"interval_seconds": 20,
					"retry_limit": 3
				},
				"description": "Retry limit exceeded",
				"status": "Failure",
				"created_at": "2022-02-01T09:26:14.864Z",
				"updated_at": "2022-03-16T18:21:42.92Z"
			},
			{
				"uid": "91f55063-dcdf-4b74-8004-ce0aa275c9ef",
				"event_metadata": { "uid": "6b818593-607b-4e99-b17c-03791555deef", "name": "payment.new" },
				"endpoint": {
					"uid": "4d0ab7e0-94ab-4788-9caf-dba9f4789881",
					"target_url": "https://webhook.site/f14ce842-286d-4362-9854-bfe953bfa463",
					"status": "active",
					"secret": "HQUpvfewhsUC6meLzOsbTrurPq2x672wuQ==",
					"http_timeout": "",
					"rate_limit": 0,
					"rate_limit_duration": "",
					"sent": false
				},
				"app_metadata": { "uid": "291e98cb-4e93-408f-bb5b-d422ff13d12c", "title": "Testing some", "group_id": "5c9c6db0-7606-4f9f-9965-5455980881a2", "support_email": "emmanuel.ainaj@gmail.com" },
				"metadata": {
					"data": { "app_id": "9a6026f2-534e-4ce6-a1e3-232452efbc32", "event_type": "payment.new", "provider_id": "9a6026f2-534e-4ce6-a1e3-232452efbc32" },
					"strategy": "default",
					"next_send_time": "2022-03-16T18:22:02.947Z",
					"num_trials": 8,
					"interval_seconds": 20,
					"retry_limit": 3
				},
				"description": "Retry limit exceeded",
				"status": "Failure",
				"created_at": "2022-02-01T09:26:14.493Z",
				"updated_at": "2022-03-16T18:21:42.947Z"
			},
			{
				"uid": "545166ab-69e3-4fbb-9061-e1bf34dec18a",
				"event_metadata": { "uid": "94afa4e4-4e4e-4d3a-a7fe-acefcafe5593", "name": "payment.new" },
				"endpoint": {
					"uid": "4d0ab7e0-94ab-4788-9caf-dba9f4789881",
					"target_url": "https://webhook.site/f14ce842-286d-4362-9854-bfe953bfa463",
					"status": "active",
					"secret": "HQUpvfewhsUC6meLzOsbTrurPq2x672wuQ==",
					"http_timeout": "",
					"rate_limit": 0,
					"rate_limit_duration": "",
					"sent": false
				},
				"app_metadata": { "uid": "291e98cb-4e93-408f-bb5b-d422ff13d12c", "title": "Testing some", "group_id": "5c9c6db0-7606-4f9f-9965-5455980881a2", "support_email": "emmanuel.ainaj@gmail.com" },
				"metadata": {
					"data": { "app_id": "9a6026f2-534e-4ce6-a1e3-232452efbc32", "event_type": "payment.new", "provider_id": "9a6026f2-534e-4ce6-a1e3-232452efbc32" },
					"strategy": "default",
					"next_send_time": "2022-03-16T18:22:02.94Z",
					"num_trials": 8,
					"interval_seconds": 20,
					"retry_limit": 3
				},
				"description": "Retry limit exceeded",
				"status": "Failure",
				"created_at": "2022-02-01T09:26:14.156Z",
				"updated_at": "2022-03-16T18:21:42.94Z"
			},
			{
				"uid": "6ae50d85-1092-45b3-b671-1ee3286effcb",
				"event_metadata": { "uid": "836e8a4d-2693-45e5-8a17-3e70bf5147f9", "name": "payment.new" },
				"endpoint": {
					"uid": "4d0ab7e0-94ab-4788-9caf-dba9f4789881",
					"target_url": "https://webhook.site/f14ce842-286d-4362-9854-bfe953bfa463",
					"status": "active",
					"secret": "HQUpvfewhsUC6meLzOsbTrurPq2x672wuQ==",
					"http_timeout": "",
					"rate_limit": 0,
					"rate_limit_duration": "",
					"sent": false
				},
				"app_metadata": { "uid": "291e98cb-4e93-408f-bb5b-d422ff13d12c", "title": "Testing some", "group_id": "5c9c6db0-7606-4f9f-9965-5455980881a2", "support_email": "emmanuel.ainaj@gmail.com" },
				"metadata": {
					"data": { "app_id": "9a6026f2-534e-4ce6-a1e3-232452efbc32", "event_type": "payment.new", "provider_id": "9a6026f2-534e-4ce6-a1e3-232452efbc32" },
					"strategy": "default",
					"next_send_time": "2022-03-16T18:22:02.931Z",
					"num_trials": 7,
					"interval_seconds": 20,
					"retry_limit": 3
				},
				"description": "Retry limit exceeded",
				"status": "Failure",
				"created_at": "2022-02-01T09:26:13.8Z",
				"updated_at": "2022-03-16T18:21:42.931Z"
			},
			{
				"uid": "6ea60bd2-9b05-4234-a57b-e3cf9c5cc19a",
				"event_metadata": { "uid": "a1b04630-0b27-4e1f-94c0-32a7643619b5", "name": "payment.new" },
				"endpoint": {
					"uid": "4d0ab7e0-94ab-4788-9caf-dba9f4789881",
					"target_url": "https://webhook.site/f14ce842-286d-4362-9854-bfe953bfa463",
					"status": "active",
					"secret": "HQUpvfewhsUC6meLzOsbTrurPq2x672wuQ==",
					"http_timeout": "",
					"rate_limit": 0,
					"rate_limit_duration": "",
					"sent": false
				},
				"app_metadata": { "uid": "291e98cb-4e93-408f-bb5b-d422ff13d12c", "title": "Testing some", "group_id": "5c9c6db0-7606-4f9f-9965-5455980881a2", "support_email": "emmanuel.ainaj@gmail.com" },
				"metadata": {
					"data": { "app_id": "9a6026f2-534e-4ce6-a1e3-232452efbc32", "event_type": "payment.new", "provider_id": "9a6026f2-534e-4ce6-a1e3-232452efbc32" },
					"strategy": "default",
					"next_send_time": "2022-03-16T18:22:10.956Z",
					"num_trials": 7,
					"interval_seconds": 20,
					"retry_limit": 3
				},
				"description": "Retry limit exceeded",
				"status": "Failure",
				"created_at": "2022-02-01T09:26:13.479Z",
				"updated_at": "2022-03-16T18:21:50.956Z"
			}
		],
		"pagination": { "total": 93, "page": 1, "perPage": 20, "prev": 0, "next": 2, "totalPage": 5 }
	}
}
